EESchema Schematic File Version 4
EELAYER 30 0
EELAYER END
$Descr A4 11693 8268
encoding utf-8
Sheet 2 4
Title ""
Date ""
Rev ""
Comp ""
Comment1 ""
Comment2 ""
Comment3 ""
Comment4 ""
$EndDescr
Text GLabel 3250 1950 0    50   Input ~ 0
12Vcc
Text GLabel 2600 3500 0    50   Input ~ 0
GND
$Comp
L pspice:DIODE D1
U 1 1 60B9EBBC
P 3700 2550
F 0 "D1" H 3700 2815 50  0000 C CNN
F 1 "DIODE" H 3700 2724 50  0000 C CNN
F 2 "" H 3700 2550 50  0001 C CNN
F 3 "~" H 3700 2550 50  0001 C CNN
	1    3700 2550
	1    0    0    -1  
$EndComp
$Comp
L pspice:DIODE D2
U 1 1 60B9F19F
P 4400 2550
F 0 "D2" H 4400 2815 50  0000 C CNN
F 1 "DIODE" H 4400 2724 50  0000 C CNN
F 2 "" H 4400 2550 50  0001 C CNN
F 3 "~" H 4400 2550 50  0001 C CNN
	1    4400 2550
	1    0    0    -1  
$EndComp
$Comp
L pspice:DIODE D3
U 1 1 60B9F692
P 3700 3100
F 0 "D3" H 3700 3365 50  0000 C CNN
F 1 "DIODE" H 3700 3274 50  0000 C CNN
F 2 "" H 3700 3100 50  0001 C CNN
F 3 "~" H 3700 3100 50  0001 C CNN
	1    3700 3100
	1    0    0    -1  
$EndComp
$Comp
L pspice:DIODE D4
U 1 1 60B9FC89
P 4400 3100
F 0 "D4" H 4400 3365 50  0000 C CNN
F 1 "DIODE" H 4400 3274 50  0000 C CNN
F 2 "" H 4400 3100 50  0001 C CNN
F 3 "~" H 4400 3100 50  0001 C CNN
	1    4400 3100
	1    0    0    -1  
$EndComp
Wire Wire Line
	3250 1950 4050 1950
Wire Wire Line
	4050 1950 4050 2550
Wire Wire Line
	4050 2550 3900 2550
Wire Wire Line
	4200 2550 4050 2550
Connection ~ 4050 2550
Wire Wire Line
	4600 2550 4600 2800
Wire Wire Line
	3900 3100 4050 3100
Wire Wire Line
	4050 3100 4050 3500
Wire Wire Line
	4050 3500 2600 3500
Connection ~ 4050 3100
Wire Wire Line
	4050 3100 4200 3100
Wire Wire Line
	3500 2550 3500 2800
Wire Wire Line
	5750 2800 5200 2800
Connection ~ 4600 2800
Wire Wire Line
	4600 2800 4600 3100
$Comp
L Regulator_Linear:LT1117-3.3 Voltageregulator1
U 1 1 60BA1063
P 6050 2800
F 0 "Voltageregulator1" H 6050 3042 50  0000 C CNN
F 1 "LT1117-3.3" H 6050 2951 50  0000 C CNN
F 2 "" H 6050 2800 50  0001 C CNN
F 3 "https://www.analog.com/media/en/technical-documentation/data-sheets/1117fd.pdf" H 6050 2800 50  0001 C CNN
	1    6050 2800
	1    0    0    -1  
$EndComp
$Comp
L pspice:CAP C3
U 1 1 60BA1A26
P 5200 3300
F 0 "C3" H 5378 3346 50  0000 L CNN
F 1 "1000u" H 5378 3255 50  0000 L CNN
F 2 "" H 5200 3300 50  0001 C CNN
F 3 "~" H 5200 3300 50  0001 C CNN
	1    5200 3300
	1    0    0    -1  
$EndComp
$Comp
L pspice:CAP C4
U 1 1 60BA212D
P 6900 3300
F 0 "C4" H 7078 3346 50  0000 L CNN
F 1 "100u" H 7078 3255 50  0000 L CNN
F 2 "" H 6900 3300 50  0001 C CNN
F 3 "~" H 6900 3300 50  0001 C CNN
	1    6900 3300
	1    0    0    -1  
$EndComp
Wire Wire Line
	5200 2800 5200 3050
Connection ~ 5200 2800
Wire Wire Line
	5200 2800 4600 2800
Wire Wire Line
	3500 2800 3200 2800
Wire Wire Line
	3200 2800 3200 3850
Wire Wire Line
	3200 3850 5200 3850
Wire Wire Line
	6900 3850 6900 3550
Connection ~ 3500 2800
Wire Wire Line
	3500 2800 3500 3100
Wire Wire Line
	5200 3550 5200 3850
Connection ~ 5200 3850
Wire Wire Line
	5200 3850 6050 3850
Wire Wire Line
	6050 3100 6050 3850
Connection ~ 6050 3850
Wire Wire Line
	6050 3850 6900 3850
Wire Wire Line
	6350 2800 6900 2800
Text GLabel 7950 2800 2    50   Input ~ 0
3.3V
Wire Wire Line
	7950 2800 6900 2800
Connection ~ 6900 2800
Wire Wire Line
	6900 2800 6900 3050
$EndSCHEMATC
