EESchema Schematic File Version 4
EELAYER 30 0
EELAYER END
$Descr A4 11693 8268
encoding utf-8
Sheet 4 4
Title ""
Date ""
Rev ""
Comp ""
Comment1 ""
Comment2 ""
Comment3 ""
Comment4 ""
$EndDescr
Text GLabel 7850 1850 2    50   Input ~ 0
12Vcc
Text GLabel 4100 4900 3    50   Input ~ 0
3.3V
Text GLabel 7800 5050 3    50   Input ~ 0
GND
$Comp
L pspice:INDUCTOR L_Motor1
U 1 1 60BA62F0
P 6600 2100
F 0 "L_Motor1" H 6600 2315 50  0000 C CNN
F 1 "10u" H 6600 2224 50  0000 C CNN
F 2 "" H 6600 2100 50  0001 C CNN
F 3 "~" H 6600 2100 50  0001 C CNN
	1    6600 2100
	1    0    0    -1  
$EndComp
$Comp
L Device:R R_Motor1
U 1 1 60BA6F6A
P 5900 2100
F 0 "R_Motor1" V 5693 2100 50  0000 C CNN
F 1 "1" V 5784 2100 50  0000 C CNN
F 2 "" V 5830 2100 50  0001 C CNN
F 3 "~" H 5900 2100 50  0001 C CNN
	1    5900 2100
	0    1    1    0   
$EndComp
$Comp
L Device:LED Red1
U 1 1 60BA7B57
P 6250 1600
F 0 "Red1" H 6243 1345 50  0000 C CNN
F 1 "LED" H 6243 1436 50  0000 C CNN
F 2 "" H 6250 1600 50  0001 C CNN
F 3 "~" H 6250 1600 50  0001 C CNN
	1    6250 1600
	-1   0    0    1   
$EndComp
Wire Wire Line
	7050 1850 7050 2100
Wire Wire Line
	7050 2100 6850 2100
Wire Wire Line
	7050 1850 7050 1600
Wire Wire Line
	7050 1600 6400 1600
Connection ~ 7050 1850
Wire Wire Line
	6350 2100 6050 2100
Wire Wire Line
	5750 2100 5650 2100
Wire Wire Line
	5650 2100 5650 1850
Wire Wire Line
	5650 1600 6100 1600
$Comp
L Device:Q_NPN_BCE Q1
U 1 1 60BABB55
P 5250 2400
F 0 "Q1" H 5441 2446 50  0000 L CNN
F 1 "NPN" H 5441 2355 50  0000 L CNN
F 2 "" H 5450 2500 50  0001 C CNN
F 3 "~" H 5250 2400 50  0001 C CNN
	1    5250 2400
	1    0    0    -1  
$EndComp
$Comp
L Device:R R6
U 1 1 60BAC65C
P 4700 2400
F 0 "R6" V 4493 2400 50  0000 C CNN
F 1 "1k" V 4584 2400 50  0000 C CNN
F 2 "" V 4630 2400 50  0001 C CNN
F 3 "~" H 4700 2400 50  0001 C CNN
	1    4700 2400
	0    1    1    0   
$EndComp
$Comp
L 74xx:74HC86 XOR1
U 1 1 60BAD439
P 5250 3050
F 0 "XOR1" H 5250 3375 50  0000 C CNN
F 1 "74HC86" H 5250 3284 50  0000 C CNN
F 2 "" H 5250 3050 50  0001 C CNN
F 3 "http://www.ti.com/lit/gpn/sn74HC86" H 5250 3050 50  0001 C CNN
	1    5250 3050
	1    0    0    -1  
$EndComp
$Comp
L 4xxx:HEF4093B AND1
U 1 1 60BB1448
P 5250 3900
F 0 "AND1" H 5250 4225 50  0000 C CNN
F 1 "HEF4093B" H 5250 4134 50  0000 C CNN
F 2 "" H 5250 3900 50  0001 C CNN
F 3 "https://assets.nexperia.com/documents/data-sheet/HEF4093B.pdf" H 5250 3900 50  0001 C CNN
	1    5250 3900
	1    0    0    -1  
$EndComp
$Comp
L 74xx:74LS04 NOT1
U 1 1 60BB32E6
P 6000 4500
F 0 "NOT1" H 6000 4817 50  0000 C CNN
F 1 "74LS04" H 6000 4726 50  0000 C CNN
F 2 "" H 6000 4500 50  0001 C CNN
F 3 "http://www.ti.com/lit/gpn/sn74LS04" H 6000 4500 50  0001 C CNN
	1    6000 4500
	1    0    0    -1  
$EndComp
Wire Wire Line
	5550 3900 5550 4500
Wire Wire Line
	5550 4500 5700 4500
Wire Wire Line
	5650 1850 5350 1850
Wire Wire Line
	5350 1850 5350 2200
Connection ~ 5650 1850
Wire Wire Line
	5650 1850 5650 1600
Wire Wire Line
	5050 2400 4850 2400
$Comp
L Device:R R11
U 1 1 60BB4C3B
P 4100 4750
F 0 "R11" H 4170 4796 50  0000 L CNN
F 1 "1k" H 4170 4705 50  0000 L CNN
F 2 "" V 4030 4750 50  0001 C CNN
F 3 "~" H 4100 4750 50  0001 C CNN
	1    4100 4750
	1    0    0    -1  
$EndComp
Wire Wire Line
	4950 3800 4100 3800
Wire Wire Line
	4100 3800 4100 4600
Wire Wire Line
	4100 3800 4100 2950
Wire Wire Line
	4100 2400 4550 2400
Connection ~ 4100 3800
Wire Wire Line
	4950 2950 4100 2950
Connection ~ 4100 2950
Wire Wire Line
	4100 2950 4100 2400
$Comp
L Device:R R7
U 1 1 60BB63C0
P 6650 3050
F 0 "R7" V 6443 3050 50  0000 C CNN
F 1 "1k" V 6534 3050 50  0000 C CNN
F 2 "" V 6580 3050 50  0001 C CNN
F 3 "~" H 6650 3050 50  0001 C CNN
	1    6650 3050
	0    1    1    0   
$EndComp
$Comp
L Device:R R8
U 1 1 60BB6994
P 6650 3900
F 0 "R8" V 6443 3900 50  0000 C CNN
F 1 "1k" V 6534 3900 50  0000 C CNN
F 2 "" V 6580 3900 50  0001 C CNN
F 3 "~" H 6650 3900 50  0001 C CNN
	1    6650 3900
	0    1    1    0   
$EndComp
$Comp
L Device:R R9
U 1 1 60BB71EE
P 6650 4500
F 0 "R9" V 6443 4500 50  0000 C CNN
F 1 "1k" V 6534 4500 50  0000 C CNN
F 2 "" V 6580 4500 50  0001 C CNN
F 3 "~" H 6650 4500 50  0001 C CNN
	1    6650 4500
	0    1    1    0   
$EndComp
Wire Wire Line
	6500 3050 5550 3050
Wire Wire Line
	5550 3900 6500 3900
Connection ~ 5550 3900
Wire Wire Line
	6300 4500 6500 4500
$Comp
L Device:LED Orange1
U 1 1 60BBBEE4
P 7250 3050
F 0 "Orange1" H 7243 3267 50  0000 C CNN
F 1 "LED" H 7243 3176 50  0000 C CNN
F 2 "" H 7250 3050 50  0001 C CNN
F 3 "~" H 7250 3050 50  0001 C CNN
	1    7250 3050
	-1   0    0    -1  
$EndComp
$Comp
L Device:LED Yellow1
U 1 1 60BBC2BA
P 7200 3900
F 0 "Yellow1" H 7193 4117 50  0000 C CNN
F 1 "LED" H 7193 4026 50  0000 C CNN
F 2 "" H 7200 3900 50  0001 C CNN
F 3 "~" H 7200 3900 50  0001 C CNN
	1    7200 3900
	-1   0    0    -1  
$EndComp
$Comp
L Device:LED Green1
U 1 1 60BBC5F0
P 7250 4500
F 0 "Green1" H 7243 4717 50  0000 C CNN
F 1 "LED" H 7243 4626 50  0000 C CNN
F 2 "" H 7250 4500 50  0001 C CNN
F 3 "~" H 7250 4500 50  0001 C CNN
	1    7250 4500
	-1   0    0    -1  
$EndComp
Wire Wire Line
	7050 1850 7850 1850
Wire Wire Line
	6800 3050 7100 3050
Wire Wire Line
	6800 3900 7050 3900
Wire Wire Line
	6800 4500 7100 4500
Wire Wire Line
	7400 3050 7800 3050
Wire Wire Line
	7400 4500 7800 4500
Wire Wire Line
	7800 3050 7800 3900
Connection ~ 7800 4500
Wire Wire Line
	7800 4500 7800 5050
Wire Wire Line
	7350 3900 7800 3900
Connection ~ 7800 3900
Wire Wire Line
	7800 3900 7800 4500
Wire Wire Line
	5350 2600 7800 2600
Wire Wire Line
	7800 2600 7800 3050
Connection ~ 7800 3050
$Comp
L Device:D_Zener Dz1
U 1 1 60BC27C1
P 4800 3150
F 0 "Dz1" H 4800 3367 50  0000 C CNN
F 1 "D_Zener" H 4800 3276 50  0000 C CNN
F 2 "" H 4800 3150 50  0001 C CNN
F 3 "~" H 4800 3150 50  0001 C CNN
	1    4800 3150
	1    0    0    -1  
$EndComp
$Comp
L Device:R R10
U 1 1 60BC3312
P 4800 4000
F 0 "R10" V 4593 4000 50  0000 C CNN
F 1 "1k" V 4684 4000 50  0000 C CNN
F 2 "" V 4730 4000 50  0001 C CNN
F 3 "~" H 4800 4000 50  0001 C CNN
	1    4800 4000
	0    1    1    0   
$EndComp
Text GLabel 4650 4000 0    50   Input ~ 0
12Vcc
Text GLabel 4650 3150 0    50   Input ~ 0
Battery
$EndSCHEMATC
